<?xml version="1.0" encoding="UTF-8"?>
<session version="1.0">
<refactoring comment="Delete resource &apos;FiltersProject&apos;" deleteContents="false" description="Delete resource &apos;FiltersProject&apos;" element1="/FiltersProject" flags="7" id="org.eclipse.ltk.core.refactoring.delete.resources" resources="1" stamp="1445267473668"/>
</session>